<?xml version="1.0" encoding="UTF-8"?>
<svg width="13px" height="124px" viewBox="0 0 13 124" version="1.1" xmlns="http://www.w3.org/2000/svg" xmlns:xlink="http://www.w3.org/1999/xlink">
    <!-- Generator: Sketch 52.3 (67297) - http://www.bohemiancoding.com/sketch -->
    <title>Group 5</title>
    <desc>Created with Sketch.</desc>
    <g id="Page-1" stroke="none" stroke-width="1" fill="none" fill-rule="evenodd">
        <g id="iPad-Pro" transform="translate(-283.000000, -621.000000)" stroke="#FFFFFF">
            <g id="Group-5" transform="translate(284.000000, 622.000000)">
                <polyline id="Path-2" points="12 0.0726350523 0.122195926 0.0726350523 0.122195926 13.5"></polyline>
                <polyline id="Path-2-Copy" transform="translate(6.061098, 115.213682) scale(1, -1) translate(-6.061098, -115.213682) " points="12 108.5 0.122195926 108.5 0.122195926 121.927365"></polyline>
            </g>
        </g>
    </g>
</svg>